{
	"values": [
		{
			"capability": "BOARD_MODULES",
			"description": "amount of GSM modules of one type",
			"repeat": {
				"capability": "MODULE%i",
				"description": "GSM module type",
				"values": {
					"A": "UMTS",
					"B": "CDMA",
					"C": "Cat4",
					"D": "Cat6",
					"E": "Cat12"
				}
			}
		},
		{
			"capability": "BOARD_WIFI_MODULES",
			"description": "amount of WiFi modules",
			"several": {
				"capability": "WIFI%i",
				"description": "WiFi module bands",
				"values": {
					"A": "2.4",
					"B": "2.4/5",
					"C": "5"
				}
			}
		},
		{
			"capability": "BOARD_ETHERS",
			"description": "amount of Ethernet ports"
		},
		{
			"capability": "SIM_SWITCH",
			"description": "SIM switch present",
			"values": {
				"none": "n",
				"A": "y"
			}
		},
		{
			"capability": "BOARD_GPIO",
			"description": "amount of GPIOs"
		},
		{
			"capability": "BOARD_GPI",
			"description": "amount of GP inputs"
		},
		{
			"capability": "BOARD_GPO",
			"description": "amount of GP outputs"
		},
		{
			"capability": "BOARD_RS232",
			"description": "amount of RS232 ports"
		},
		{
			"capability": "BOARD_RS485",
			"description": "amount of RS485 ports"
		},
		{
			"capability": "BOARD_GPS",
			"description": "GPS presence and type",
			"values": {
				"none": "n",
				"A": "y",
				"B": "P00242-002_I2C",
				"C": "P00242-002_TTY"
			}
		},
		{
			"capability": "BOARD_UPS",
			"description": "UPS present",
			"values": {
				"none": "n",
				"A": "y"
			}
		},
		{
			"capability": "EXTRA_COMBO_SERIAL",
			"description": "amount of external COMBO SERIAL ports"
		},
		{
			"capability": "BOARD_USB",
			"description": "USB present",
			"values": {
				"none": "n",
				"A": "y"
			}
		},
		{
			"capability": "BOARD_POE",
			"description": "POE support",
			"values": {
				"none": "n",
				"A": "pin",
				"B": "pout",
				"C": "pin,pout",
				"D": "ain",
				"E": "aout",
				"F": "ain,aout",
				"G": "ain,pout",
				"H": "pin,aout"
			}
		},
		{
			"capability": "BOARD_POE_IN",
			"description": "amount of POE inputs"
		},
		{
			"capability": "BOARD_POE_OUT",
			"description": "amount of POE outputs"
		}
	]
}
